{
  "development": {
    "username": "user",
    "password": "",
    "database": "database_development",
    "host": "127.0.0.1",
    "port": 5432,
    "dialect": "postgres"
  },
  "test": {
    "username": "user",
    "password": "",
    "database": "database_test",
    "host": "127.0.0.1",
    "port": 5432,
    "dialect": "postgres"
  },
  "production": {
    "username": "user",
    "password": "",
    "database": "database_production",
    "host": "127.0.0.1",
    "port": 5432,
    "dialect": "postgres"
  }
}
